{
  "/": {
    "title": "4e.io",
    "view": "home",
    "text": "A bloggish thing. Beware. Be very aware.",
    "name": "content",
    "path": "/content",
    "url": "/",
    "files": {},
    "pages": {
      "projects": {
        "name": "projects",
        "path": "/content/projects",
        "url": "/projects",
        "source": "/content/projects"
      },
      "blog": {
        "name": "blog",
        "path": "/content/blog",
        "url": "/blog",
        "source": "/content/blog"
      },
      "about": {
        "name": "about",
        "path": "/content/about",
        "url": "/about",
        "source": "/content/about"
      }
    }
  },
  "/about": {
    "title": "About",
    "view": "about",
    "text": "Trying to use all my senses to explore this life in detail.\n\n**#privacy #security #freesoftware #p2p #decentralisation #openness #minimalism #slowmovement #solarpunk #edupunk #gardening #commoner**\n\n\n### You can also find me here...\n\n[@4eek on Twitter](https://twitter.com/4eek)\n\n[@4eek on Mastodon](https://mastodon.social/@4eek)\n\n[@4eek on Scuttlebutt](https://www.scuttlebutt.nz/)\n\n[Ane.na](https://are.na/kevin-fourie)\n\n\n### These pages are also available here...\n\n[DAT](dat://fb1b07c8138d1255310a8dbcffcde09c71276d75384e256c5a9b04e6a20d240a/)\n\n[Hashbase DAT](dat://blog-4eek.hashbase.io)\n\n[Hashbase HTTPS](https://blog-4eek.hashbase.io)\n\n[Web HTTPS](https://www.4e.io/)\n\n[Onion (coming soon)]()",
    "image": "Azhlct0CMAAAEa0.jpg",
    "name": "about",
    "path": "/content/about",
    "url": "/about",
    "files": {
      "Azhlct0CMAAAEa0.jpg": {
        "name": "Azhlct0CMAAAEa0",
        "path": "/content/about/Azhlct0CMAAAEa0.jpg",
        "url": "/about/Azhlct0CMAAAEa0.jpg",
        "source": "dat://fb1b07c8138d1255310a8dbcffcde09c71276d75384e256c5a9b04e6a20d240a/content/about/Azhlct0CMAAAEa0.jpg",
        "extension": ".jpg",
        "filename": "Azhlct0CMAAAEa0.jpg",
        "type": "image"
      }
    },
    "pages": {}
  },
  "/projects": {
    "title": "Projects",
    "view": "projects",
    "name": "projects",
    "path": "/content/projects",
    "url": "/projects",
    "files": {},
    "pages": {
      "taking-my-data-back": {
        "name": "taking-my-data-back",
        "path": "/content/projects/taking-my-data-back",
        "url": "/projects/taking-my-data-back",
        "source": "/content/projects/taking-my-data-back"
      },
      "raspberrypi-kubernetes-cluster": {
        "name": "raspberrypi-kubernetes-cluster",
        "path": "/content/projects/raspberrypi-kubernetes-cluster",
        "url": "/projects/raspberrypi-kubernetes-cluster",
        "source": "/content/projects/raspberrypi-kubernetes-cluster"
      }
    }
  },
  "/blog": {
    "title": "Blog",
    "view": "blog",
    "text": "",
    "name": "blog",
    "path": "/content/blog",
    "url": "/blog",
    "files": {},
    "pages": {
      "2017-07-12": {
        "name": "2017-07-12",
        "path": "/content/blog/2017-07-12",
        "url": "/blog/2017-07-12",
        "source": "/content/blog/2017-07-12"
      },
      "2017-08-05": {
        "name": "2017-08-05",
        "path": "/content/blog/2017-08-05",
        "url": "/blog/2017-08-05",
        "source": "/content/blog/2017-08-05"
      },
      "2017-09-03-absalon": {
        "name": "2017-09-03-absalon",
        "path": "/content/blog/2017-09-03-absalon",
        "url": "/blog/2017-09-03-absalon",
        "source": "/content/blog/2017-09-03-absalon"
      }
    }
  },
  "/blog/2017-08-05": {
    "title": "Becoming user",
    "view": "entry",
    "date": "2017-08-05",
    "excerpt": "On the role of Media Theory at Universities of Applied Art, Technology and Art and Technology.",
    "source": "http://contemporary-home-computing.org/art-and-tech/not/",
    "text": "“Don’t fall for the word ‘technology’”, Ted Nelsons concludes in the last paragraph of Geeks bearing Gifts,[3] “It sounds determinate. It hides the fights and the alternatives. And mostly it is intended to make you submissive.” He appeals to not accept computer technology as WYSIHAM—his own acronym for What You See is Wonderfully, Happily, Absolutely Mandatory—but to see the tensions, the history and the alternatives. It is an important call, but only one third of the argument I have against the term technology.\n\nSubmission is one issue, but sedation is even more important. “Technology” as a replacement for digital technology or computer technology, who are in turn already substitutes for “programmed system,” is a figure of speech known as synecdoche: in this particular case when the whole is referring for a part.\n\nIt is a rhetorical trope that makes the computer dissolve in all other technologies, becoming an invisible part, just one of many technologies. It is in the interest of the industry, because it makes users unaware of the computer as a system that is programmed, that can be reprogrammed any moment, that could potentially be programmed or reprogrammed by their users.\n\nThere are (re-)programmable technologies and many that are not programmable. But constant repetition of the word technology instead of computers sedates and makes forget that the system you hold in your hands is a programmable one.",
    "name": "2017-08-05",
    "path": "/content/blog/2017-08-05",
    "url": "/blog/2017-08-05",
    "files": {},
    "pages": {}
  },
  "/blog/2017-07-12": {
    "title": "Appropriate technology",
    "view": "entry",
    "date": "2017-07-12",
    "source": "http://lsa.colorado.edu/essence/texts/appropriate.htm",
    "excerpt": "The term technology, a combination of the Greek technē, \"art, craft\", with logos, \"word, speech\", meant in Greece a discourse on the arts, both fine and applied.",
    "text": "Appropriate technology is small-scale technology. It is simple enough that people can manage it directly and on a local level. Appropriate technology makes use of skills and technology that are available in a local community to supply basic human needs, such as gas and electricity, water, food, and waste disposal.\n\n### Appropriate technology is decentralized\n\nToday, many of our basic needs are handled by huge, complex systems. These systems are managed centrally by large private corporations or the government. For example, our electricity typically comes from utility companies that operate across many states. Similarly, many of the fruits and vegetables we consume come from large-scale agricultural corporations in California. In contrast, with appropriate technology the person who produces a service or a product also becomes the consumer - the person who uses it. This has several advantages: For one, consumer-producers are more likely to care more about their work. As a result, service and goods are more reliable and of higher quality. Secondly, centralized systems remust invest a lot of money to purchase large, complex machinery and to employ thousands of workers. Often these systems are disrupted due to breakdowns in the technology, problems getting needed supplies, or labor strikes. When this happens a great many people are affected. Breakdowns such as a power outage may also occur in communities that use small-scale, appropriate technology. But these local breakdowns are not nearly so difficult and time consuming to track down and repair as those that cover a broad geographic area. Thus, a simpler technology tends to be more reliable, and the effects of breakdowns do not disrupt so many lives.\n\n### Technologically sophisticated, though simple in design\n\nIt is important to realize that use of appropriate technology does not mean turning the clock back to the 18th or 19th century. Although the technology involves simple, easy-to use and repair designs, it is based on sophisticated, 20th-century technologies. One example is the invention of photovoltaic, or solar cells that convert solar energy, a renewable energy source, into electricity for homes and businesses.\n\n### Environmentally friendly\n\nAppropriate technology emphasizes the use of renewable resources, like the energy from the sun, wind, or water. These energy sources are available almost everywhere and need only the right technology to capture them. Unlike burning coal and oil, these local energy sources do not contribute to air and water pollution and they do not need to be transported over long distances. Food, energy, water, and waste disposal are also handled locally by ecological systems. These are systems that conserve resources by recycling organic nutrients back into the soil and re-using manufactured goods in innovative ways. Thus, appropriate technology makes it possible to satisfy our basic human needs while minimizing our impact on the environment.\n\n### Social problems\n\nMany people are coming to realize that neither our economy nor our population can continue to grow forever. We are running out of the natural resources necessary to sustain ourselves. In addition we are limited in our ability to deal with the social and environmental problems that result from continuous growth. There seems to be a growing dissatisfaction with the complexity and hectic lifestyle of 20th-century society. Many people would prefer to return to a simpler way of life. Appropriate technology is attractive because it makes households and industries more self-sufficient, and most things can be managed at a local level. We may have to do more hand labor instead of depending on automation to satisfy our basic needs. However, there are many advantages to simplifying our lives. By growing more of our own food and producing and buying goods in our own communitites, we spend less time and money on transportation, produce less waste and consume fewer environmental resources.",
    "name": "2017-07-12",
    "path": "/content/blog/2017-07-12",
    "url": "/blog/2017-07-12",
    "files": {},
    "pages": {}
  },
  "/blog/2017-09-03-absalon": {
    "title": "Proposals for Habitation",
    "view": "entry",
    "date": "2017-09-03",
    "excerpt": "In the course of six years Absalon created a series of one person living units based on everyday routine actions and designed entirely in relation to his measures.",
    "source": "https",
    "text": "Meir Eshel (December 26, 1964, Ashdod – October 10, 1993, Paris), known professionally as Absalon, was an Israeli-French artist and sculptor.\n\n![](https://blog-4eek.hashbase.io/content/blog/2017-09-03-absalon/absalon.jpg)\n\nIn the course of six years Absalon created a series of one person living units based on everyday routine actions and designed entirely in relation to his measures. The inside of the cell is all covered in white in order to reduce distractions or elements that can disturb the eye.\n\nIn his video Solutions (1992) Absalon demonstrate the study of measurements and calculation of movements like eating, sleeping, taking shower which later will define the form of his cells. In 1993 Absalon started to construct six cells which were supposed to be installed in six metropolitan centers as Absalon described in interview",
    "name": "2017-09-03-absalon",
    "path": "/content/blog/2017-09-03-absalon",
    "url": "/blog/2017-09-03-absalon",
    "files": {
      "absalon.jpg": {
        "name": "absalon",
        "path": "/content/blog/2017-09-03-absalon/absalon.jpg",
        "url": "/blog/2017-09-03-absalon/absalon.jpg",
        "source": "dat://fb1b07c8138d1255310a8dbcffcde09c71276d75384e256c5a9b04e6a20d240a/content/blog/2017-09-03-absalon/absalon.jpg",
        "extension": ".jpg",
        "filename": "absalon.jpg",
        "type": "image"
      }
    },
    "pages": {}
  },
  "/projects/taking-my-data-back": {
    "title": "Taking My Data Back",
    "view": "project",
    "tags": [
      "privacy",
      "security",
      "data",
      "rights",
      "nextcloud"
    ],
    "name": "taking-my-data-back",
    "path": "/content/projects/taking-my-data-back",
    "url": "/projects/taking-my-data-back",
    "files": {
      "riccardo-chiarini-260264-unsplash.jpg": {
        "name": "riccardo-chiarini-260264-unsplash",
        "path": "/content/projects/taking-my-data-back/riccardo-chiarini-260264-unsplash.jpg",
        "url": "/projects/taking-my-data-back/riccardo-chiarini-260264-unsplash.jpg",
        "source": "dat://fb1b07c8138d1255310a8dbcffcde09c71276d75384e256c5a9b04e6a20d240a/content/projects/taking-my-data-back/riccardo-chiarini-260264-unsplash.jpg",
        "extension": ".jpg",
        "filename": "riccardo-chiarini-260264-unsplash.jpg",
        "type": "image"
      },
      "brian-cook-324843-unsplash.jpg": {
        "name": "brian-cook-324843-unsplash",
        "path": "/content/projects/taking-my-data-back/brian-cook-324843-unsplash.jpg",
        "url": "/projects/taking-my-data-back/brian-cook-324843-unsplash.jpg",
        "source": "dat://fb1b07c8138d1255310a8dbcffcde09c71276d75384e256c5a9b04e6a20d240a/content/projects/taking-my-data-back/brian-cook-324843-unsplash.jpg",
        "extension": ".jpg",
        "filename": "brian-cook-324843-unsplash.jpg",
        "type": "image"
      }
    },
    "pages": {}
  },
  "/projects/raspberrypi-kubernetes-cluster": {
    "title": "RaspberryPi Kubernetes Cluster",
    "view": "project",
    "tags": [
      "raspberrypi",
      "kubernetes",
      "cluster"
    ],
    "name": "raspberrypi-kubernetes-cluster",
    "path": "/content/projects/raspberrypi-kubernetes-cluster",
    "url": "/projects/raspberrypi-kubernetes-cluster",
    "files": {
      "clint-adair-68588-unsplash.jpg": {
        "name": "clint-adair-68588-unsplash",
        "path": "/content/projects/raspberrypi-kubernetes-cluster/clint-adair-68588-unsplash.jpg",
        "url": "/projects/raspberrypi-kubernetes-cluster/clint-adair-68588-unsplash.jpg",
        "source": "dat://fb1b07c8138d1255310a8dbcffcde09c71276d75384e256c5a9b04e6a20d240a/content/projects/raspberrypi-kubernetes-cluster/clint-adair-68588-unsplash.jpg",
        "extension": ".jpg",
        "filename": "clint-adair-68588-unsplash.jpg",
        "type": "image"
      }
    },
    "pages": {}
  }
}